Lab 5 Part 4/simulation/qsim/lab5_part4.msim.vcd
$comment
	File created using the following command:
		vcd file lab5_part4.msim.vcd -direction
$end
$date
	Mon Oct 15 22:57:06 2018
$end
$version
	ModelSim Version 10.4d
$end
$timescale
	1ps
$end

$scope module part4_vlg_vec_tst $end
$var reg 1 ! KEY [0:0] $end
$var reg 2 " SW [1:0] $end
$var wire 1 # HEX0 [0] $end
$var wire 1 $ HEX0 [1] $end
$var wire 1 % HEX0 [2] $end
$var wire 1 & HEX0 [3] $end
$var wire 1 ' HEX0 [4] $end
$var wire 1 ( HEX0 [5] $end
$var wire 1 ) HEX0 [6] $end
$var wire 1 * HEX1 [0] $end
$var wire 1 + HEX1 [1] $end
$var wire 1 , HEX1 [2] $end
$var wire 1 - HEX1 [3] $end
$var wire 1 . HEX1 [4] $end
$var wire 1 / HEX1 [5] $end
$var wire 1 0 HEX1 [6] $end
$var wire 1 1 HEX2 [0] $end
$var wire 1 2 HEX2 [1] $end
$var wire 1 3 HEX2 [2] $end
$var wire 1 4 HEX2 [3] $end
$var wire 1 5 HEX2 [4] $end
$var wire 1 6 HEX2 [5] $end
$var wire 1 7 HEX2 [6] $end
$var wire 1 8 HEX3 [0] $end
$var wire 1 9 HEX3 [1] $end
$var wire 1 : HEX3 [2] $end
$var wire 1 ; HEX3 [3] $end
$var wire 1 < HEX3 [4] $end
$var wire 1 = HEX3 [5] $end
$var wire 1 > HEX3 [6] $end

$scope module i1 $end
$var wire 1 ? gnd $end
$var wire 1 @ vcc $end
$var wire 1 A unknown $end
$var tri1 1 B devclrn $end
$var tri1 1 C devpor $end
$var tri1 1 D devoe $end
$var wire 1 E HEX0[6]~output_o $end
$var wire 1 F HEX0[5]~output_o $end
$var wire 1 G HEX0[4]~output_o $end
$var wire 1 H HEX0[3]~output_o $end
$var wire 1 I HEX0[2]~output_o $end
$var wire 1 J HEX0[1]~output_o $end
$var wire 1 K HEX0[0]~output_o $end
$var wire 1 L HEX1[6]~output_o $end
$var wire 1 M HEX1[5]~output_o $end
$var wire 1 N HEX1[4]~output_o $end
$var wire 1 O HEX1[3]~output_o $end
$var wire 1 P HEX1[2]~output_o $end
$var wire 1 Q HEX1[1]~output_o $end
$var wire 1 R HEX1[0]~output_o $end
$var wire 1 S HEX2[6]~output_o $end
$var wire 1 T HEX2[5]~output_o $end
$var wire 1 U HEX2[4]~output_o $end
$var wire 1 V HEX2[3]~output_o $end
$var wire 1 W HEX2[2]~output_o $end
$var wire 1 X HEX2[1]~output_o $end
$var wire 1 Y HEX2[0]~output_o $end
$var wire 1 Z HEX3[6]~output_o $end
$var wire 1 [ HEX3[5]~output_o $end
$var wire 1 \ HEX3[4]~output_o $end
$var wire 1 ] HEX3[3]~output_o $end
$var wire 1 ^ HEX3[2]~output_o $end
$var wire 1 _ HEX3[1]~output_o $end
$var wire 1 ` HEX3[0]~output_o $end
$var wire 1 a KEY[0]~input_o $end
$var wire 1 b t0|Add0~13_sumout $end
$var wire 1 c SW[0]~input_o $end
$var wire 1 d SW[1]~input_o $end
$var wire 1 e t0|output1[3]~0_combout $end
$var wire 1 f t0|Add0~14 $end
$var wire 1 g t0|Add0~1_sumout $end
$var wire 1 h t0|Add0~2 $end
$var wire 1 i t0|Add0~9_sumout $end
$var wire 1 j t0|Add0~10 $end
$var wire 1 k t0|Add0~5_sumout $end
$var wire 1 l comb_5|hex[5]~0_combout $end
$var wire 1 m comb_5|hex[4]~1_combout $end
$var wire 1 n comb_5|hex[2]~2_combout $end
$var wire 1 o comb_5|hex[1]~3_combout $end
$var wire 1 p comb_5|hex[0]~4_combout $end
$var wire 1 q t0|Add0~6 $end
$var wire 1 r t0|Add0~29_sumout $end
$var wire 1 s t0|Add0~30 $end
$var wire 1 t t0|Add0~17_sumout $end
$var wire 1 u t0|Add0~18 $end
$var wire 1 v t0|Add0~25_sumout $end
$var wire 1 w t0|Add0~26 $end
$var wire 1 x t0|Add0~21_sumout $end
$var wire 1 y comb_6|hex[5]~0_combout $end
$var wire 1 z comb_6|hex[4]~1_combout $end
$var wire 1 { comb_6|hex[2]~2_combout $end
$var wire 1 | comb_6|hex[1]~3_combout $end
$var wire 1 } comb_6|hex[0]~4_combout $end
$var wire 1 ~ t0|Add0~22 $end
$var wire 1 !! t0|Add0~45_sumout $end
$var wire 1 "! t0|Add0~46 $end
$var wire 1 #! t0|Add0~33_sumout $end
$var wire 1 $! t0|Add0~34 $end
$var wire 1 %! t0|Add0~41_sumout $end
$var wire 1 &! t0|Add0~42 $end
$var wire 1 '! t0|Add0~37_sumout $end
$var wire 1 (! comb_7|hex[5]~0_combout $end
$var wire 1 )! comb_7|hex[4]~1_combout $end
$var wire 1 *! comb_7|hex[2]~2_combout $end
$var wire 1 +! comb_7|hex[1]~3_combout $end
$var wire 1 ,! comb_7|hex[0]~4_combout $end
$var wire 1 -! t0|Add0~38 $end
$var wire 1 .! t0|Add0~61_sumout $end
$var wire 1 /! t0|Add0~62 $end
$var wire 1 0! t0|Add0~49_sumout $end
$var wire 1 1! t0|Add0~50 $end
$var wire 1 2! t0|Add0~53_sumout $end
$var wire 1 3! t0|Add0~54 $end
$var wire 1 4! t0|Add0~57_sumout $end
$var wire 1 5! comb_8|hex[5]~0_combout $end
$var wire 1 6! comb_8|hex[4]~1_combout $end
$var wire 1 7! comb_8|hex[2]~2_combout $end
$var wire 1 8! comb_8|hex[1]~3_combout $end
$var wire 1 9! comb_8|hex[0]~4_combout $end
$var wire 1 :! comb_5|hex [0] $end
$var wire 1 ;! comb_5|hex [1] $end
$var wire 1 <! comb_5|hex [2] $end
$var wire 1 =! comb_5|hex [3] $end
$var wire 1 >! comb_5|hex [4] $end
$var wire 1 ?! comb_5|hex [5] $end
$var wire 1 @! comb_5|hex [6] $end
$var wire 1 A! t0|output1 [0] $end
$var wire 1 B! t0|output1 [1] $end
$var wire 1 C! t0|output1 [2] $end
$var wire 1 D! t0|output1 [3] $end
$var wire 1 E! t0|output1 [4] $end
$var wire 1 F! t0|output1 [5] $end
$var wire 1 G! t0|output1 [6] $end
$var wire 1 H! t0|output1 [7] $end
$var wire 1 I! t0|output1 [8] $end
$var wire 1 J! t0|output1 [9] $end
$var wire 1 K! t0|output1 [10] $end
$var wire 1 L! t0|output1 [11] $end
$var wire 1 M! t0|output1 [12] $end
$var wire 1 N! t0|output1 [13] $end
$var wire 1 O! t0|output1 [14] $end
$var wire 1 P! t0|output1 [15] $end
$var wire 1 Q! comb_8|hex [0] $end
$var wire 1 R! comb_8|hex [1] $end
$var wire 1 S! comb_8|hex [2] $end
$var wire 1 T! comb_8|hex [3] $end
$var wire 1 U! comb_8|hex [4] $end
$var wire 1 V! comb_8|hex [5] $end
$var wire 1 W! comb_8|hex [6] $end
$var wire 1 X! comb_7|hex [0] $end
$var wire 1 Y! comb_7|hex [1] $end
$var wire 1 Z! comb_7|hex [2] $end
$var wire 1 [! comb_7|hex [3] $end
$var wire 1 \! comb_7|hex [4] $end
$var wire 1 ]! comb_7|hex [5] $end
$var wire 1 ^! comb_7|hex [6] $end
$var wire 1 _! comb_6|hex [0] $end
$var wire 1 `! comb_6|hex [1] $end
$var wire 1 a! comb_6|hex [2] $end
$var wire 1 b! comb_6|hex [3] $end
$var wire 1 c! comb_6|hex [4] $end
$var wire 1 d! comb_6|hex [5] $end
$var wire 1 e! comb_6|hex [6] $end
$upscope $end
$upscope $end
$enddefinitions $end
#0
$dumpvars
b0 !
b11 "
1)
0(
0'
0&
0%
0$
0#
10
0/
0.
0-
0,
0+
0*
17
06
05
04
03
02
01
1>
0=
0<
0;
0:
09
08
0?
1@
xA
1B
1C
1D
1E
0F
0G
0H
0I
0J
0K
1L
0M
0N
0O
0P
0Q
0R
1S
0T
0U
0V
0W
0X
0Y
1Z
0[
0\
0]
0^
0_
0`
0a
1b
1c
1d
1e
0f
0g
0h
0i
0j
0k
0l
0m
0n
0o
0p
0q
0r
0s
0t
0u
0v
0w
0x
0y
0z
0{
0|
0}
0~
0!!
0"!
0#!
0$!
0%!
0&!
0'!
0(!
0)!
0*!
0+!
0,!
0-!
0.!
0/!
00!
01!
02!
03!
04!
05!
06!
07!
08!
09!
1@!
z?!
z>!
0=!
z<!
z;!
z:!
0P!
0O!
0N!
0M!
0L!
0K!
0J!
0I!
0H!
0G!
0F!
0E!
0D!
0C!
0B!
0A!
1W!
zV!
zU!
0T!
zS!
zR!
zQ!
1^!
z]!
z\!
0[!
zZ!
zY!
zX!
1e!
zd!
zc!
0b!
za!
z`!
z_!
$end
#10000
b1 !
1a
1P!
1f
1p
1=!
1m
1l
0b
1F
1G
1H
1K
1#
1&
1'
1(
1g
#20000
b0 !
0a
#30000
b1 !
1a
1O!
0P!
0f
1h
0p
1n
0=!
0m
0@!
1b
0g
0E
0G
0H
1I
0K
0h
0#
1%
0&
0'
0)
1g
1i
0i
#40000
b0 !
0a
#50000
b1 !
1a
1P!
1f
0n
1m
0b
1G
0I
1h
0%
1'
0g
1i
#60000
b0 !
0a
#70000
b1 !
1a
1N!
0O!
0P!
0f
0h
1j
1p
1=!
0l
1b
1g
0i
0F
1H
1K
0j
1#
1&
0(
0g
1i
1k
0k
#80000
b0 !
0a
#90000
b1 !
1a
1P!
1f
0p
1o
0=!
0b
0H
1J
0K
0#
1$
0&
1g
#100000
b0 !
0a
#110000
b1 !
1a
1O!
0P!
0f
1h
0m
1b
0g
0G
0h
1j
0'
1g
0i
0j
1i
1k
0k
#120000
b0 !
0a
#130000
b1 !
1a
1P!
1f
0o
1=!
1m
1l
1@!
0b
1E
1F
1G
1H
0J
1h
0$
1&
1'
1(
1)
0g
1j
0i
1k
#140000
b0 !
0a
#150000
b1 !
1a
1M!
0N!
0O!
0P!
0f
0h
0j
1q
0=!
0m
0l
0@!
1b
1g
1i
0k
0E
0F
0G
0H
0q
0&
0'
0(
0)
0g
0i
1k
1r
0r
#160000
b0 !
0a
#170000
b1 !
1a
1P!
1f
1m
0b
1G
1'
1g
#180000
b0 !
0a
#190000
b1 !
1a
1O!
0P!
0f
1h
1=!
0m
1b
0g
0G
1H
0h
1&
0'
1g
1i
0i
#200000
b0 !
0a
#210000
b1 !
1a
1P!
1f
1p
1o
0=!
0b
0H
1J
1K
1h
1#
1$
0&
0g
1i
#220000
b0 !
0a
#230000
b1 !
1a
1N!
0O!
0P!
0f
0h
1j
0p
1n
1@!
1b
1g
0i
1E
1I
0K
0j
1q
0#
1%
1)
0g
1i
0k
0q
1k
1r
0r
#240000
b0 !
0a
#250000
b1 !
1a
1P!
1f
1p
0o
0n
1l
0@!
0b
0E
1F
0I
0J
1K
1#
0$
0%
1(
0)
1g
#260000
b0 !
0a
#270000
b1 !
1a
1O!
0P!
0f
1h
0p
1o
1n
0l
1b
0g
0F
1I
1J
0K
0h
1j
0#
1$
1%
0(
1g
0i
0j
1q
1i
0k
0q
1k
1r
0r
#280000
b0 !
0a
#290000
b1 !
1a
1P!
1f
1=!
0b
1H
1h
1&
0g
1j
0i
1q
0k
1r
#300000
b0 !
0a
#310000
b1 !
1a
1L!
0M!
0N!
0O!
0P!
0f
0h
0j
0q
1s
0o
0n
0=!
1@!
1b
1g
1i
1k
1}
1b!
1z
1y
0r
1M
1N
1O
1R
1E
0H
0I
0J
0s
0$
0%
0&
1)
1*
1-
1.
1/
0g
0i
0k
1r
1t
0t
#320000
b0 !
0a
#330000
b1 !
1a
1P!
1f
1p
1=!
1m
1l
0b
1F
1G
1H
1K
1#
1&
1'
1(
1g
#340000
b0 !
0a
#350000
b1 !
1a
1O!
0P!
0f
1h
0p
1n
0=!
0m
0@!
1b
0g
0E
0G
0H
1I
0K
0h
0#
1%
0&
0'
0)
1g
1i
0i
#360000
b0 !
0a
#370000
b1 !
1a
1P!
1f
0n
1m
0b
1G
0I
1h
0%
1'
0g
1i
#380000
b0 !
0a
#390000
b1 !
1a
1N!
0O!
0P!
0f
0h
1j
1p
1=!
0l
1b
1g
0i
0F
1H
1K
0j
1#
1&
0(
0g
1i
1k
0k
#400000
b0 !
0a
#410000
b1 !
1a
1P!
1f
0p
1o
0=!
0b
0H
1J
0K
0#
1$
0&
1g
#420000
b0 !
0a
#430000
b1 !
1a
1O!
0P!
0f
1h
0m
1b
0g
0G
0h
1j
0'
1g
0i
0j
1i
1k
0k
#440000
b0 !
0a
#450000
b1 !
1a
1P!
1f
0o
1=!
1m
1l
1@!
0b
1E
1F
1G
1H
0J
1h
0$
1&
1'
1(
1)
0g
1j
0i
1k
#460000
b0 !
0a
#470000
b1 !
1a
1M!
0N!
0O!
0P!
0f
0h
0j
1q
0=!
0m
0l
0@!
1b
1g
1i
0k
0E
0F
0G
0H
0q
1s
0&
0'
0(
0)
0g
0i
1k
0r
0s
1r
1t
0t
#480000
b0 !
0a
#490000
b1 !
1a
1P!
1f
1m
0b
1G
1'
1g
#500000
b0 !
0a
#510000
b1 !
1a
1O!
0P!
0f
1h
1=!
0m
1b
0g
0G
1H
0h
1&
0'
1g
1i
0i
#520000
b0 !
0a
#530000
b1 !
1a
1P!
1f
1p
1o
0=!
0b
0H
1J
1K
1h
1#
1$
0&
0g
1i
#540000
b0 !
0a
#550000
b1 !
1a
1N!
0O!
0P!
0f
0h
1j
0p
1n
1@!
1b
1g
0i
1E
1I
0K
0j
1q
0#
1%
1)
0g
1i
0k
0q
1s
1k
0r
0s
1r
1t
0t
#560000
b0 !
0a
#570000
b1 !
1a
1P!
1f
1p
0o
0n
1l
0@!
0b
0E
1F
0I
0J
1K
1#
0$
0%
1(
0)
1g
#580000
b0 !
0a
#590000
b1 !
1a
1O!
0P!
0f
1h
0p
1o
1n
0l
1b
0g
0F
1I
1J
0K
0h
1j
0#
1$
1%
0(
1g
0i
0j
1q
1i
0k
0q
1s
1k
0r
0s
1r
1t
0t
#600000
b0 !
0a
#610000
b1 !
1a
1P!
1f
1=!
0b
1H
1h
1&
0g
1j
0i
1q
0k
1s
0r
1t
#620000
b0 !
0a
#630000
b1 !
1a
1K!
0L!
0M!
0N!
0O!
0P!
0f
0h
0j
0q
0s
1u
0o
0n
0=!
1@!
1b
1g
1i
1k
0}
1{
0b!
0z
0e!
1r
0t
0L
0N
0O
1P
0R
1E
0H
0I
0J
0u
0$
0%
0&
1)
0*
1,
0-
0.
00
0g
0i
0k
0r
1t
1v
0v
#640000
b0 !
0a
#650000
b1 !
1a
1P!
1f
1p
1=!
1m
1l
0b
1F
1G
1H
1K
1#
1&
1'
1(
1g
#660000
b0 !
0a
#670000
b1 !
1a
1O!
0P!
0f
1h
0p
1n
0=!
0m
0@!
1b
0g
0E
0G
0H
1I
0K
0h
0#
1%
0&
0'
0)
1g
1i
0i
#680000
b0 !
0a
#690000
b1 !
1a
1P!
1f
0n
1m
0b
1G
0I
1h
0%
1'
0g
1i
#700000
b0 !
0a
#710000
b1 !
1a
1N!
0O!
0P!
0f
0h
1j
1p
1=!
0l
1b
1g
0i
0F
1H
1K
0j
1#
1&
0(
0g
1i
1k
0k
#720000
b0 !
0a
#730000
b1 !
1a
1P!
1f
0p
1o
0=!
0b
0H
1J
0K
0#
1$
0&
1g
#740000
b0 !
0a
#750000
b1 !
1a
1O!
0P!
0f
1h
0m
1b
0g
0G
0h
1j
0'
1g
0i
0j
1i
1k
0k
#760000
b0 !
0a
#770000
b1 !
1a
1P!
1f
0o
1=!
1m
1l
1@!
0b
1E
1F
1G
1H
0J
1h
0$
1&
1'
1(
1)
0g
1j
0i
1k
#780000
b0 !
0a
#790000
b1 !
1a
1M!
0N!
0O!
0P!
0f
0h
0j
1q
0=!
0m
0l
0@!
1b
1g
1i
0k
0E
0F
0G
0H
0q
0&
0'
0(
0)
0g
0i
1k
1r
0r
#800000
b0 !
0a
#810000
b1 !
1a
1P!
1f
1m
0b
1G
1'
1g
#820000
b0 !
0a
#830000
b1 !
1a
1O!
0P!
0f
1h
1=!
0m
1b
0g
0G
1H
0h
1&
0'
1g
1i
0i
#840000
b0 !
0a
#850000
b1 !
1a
1P!
1f
1p
1o
0=!
0b
0H
1J
1K
1h
1#
1$
0&
0g
1i
#860000
b0 !
0a
#870000
b1 !
1a
1N!
0O!
0P!
0f
0h
1j
0p
1n
1@!
1b
1g
0i
1E
1I
0K
0j
1q
0#
1%
1)
0g
1i
0k
0q
1k
1r
0r
#880000
b0 !
0a
#890000
b1 !
1a
1P!
1f
1p
0o
0n
1l
0@!
0b
0E
1F
0I
0J
1K
1#
0$
0%
1(
0)
1g
#900000
b0 !
0a
#910000
b1 !
1a
1O!
0P!
0f
1h
0p
1o
1n
0l
1b
0g
0F
1I
1J
0K
0h
1j
0#
1$
1%
0(
1g
0i
0j
1q
1i
0k
0q
1k
1r
0r
#920000
b0 !
0a
#930000
b1 !
1a
1P!
1f
1=!
0b
1H
1h
1&
0g
1j
0i
1q
0k
1r
#940000
b0 !
0a
#950000
b1 !
1a
1L!
0M!
0N!
0O!
0P!
0f
0h
0j
0q
1s
0o
0n
0=!
1@!
1b
1g
1i
1k
0{
1z
0r
1N
0P
1E
0H
0I
0J
0s
1u
0$
0%
0&
1)
0,
1.
0g
0i
0k
1r
0t
0u
1t
1v
0v
#960000
b0 !
0a
#970000
b1 !
1a
1P!
1f
1p
1=!
1m
1l
0b
1F
1G
1H
1K
1#
1&
1'
1(
1g
#980000
b0 !
0a
#990000
b1 !
1a
1O!
0P!
0f
1h
0p
1n
0=!
0m
0@!
1b
0g
0E
0G
0H
1I
0K
0h
0#
1%
0&
0'
0)
1g
1i
0i
